<svg width="96" height="85" viewBox="0 0 96 85" fill="none" xmlns="http://www.w3.org/2000/svg">
<path d="M52.6874 22.4908L40.2526 2.32869C39.4564 1.03571 37.999 0.29772 36.5278 0.453118L15.4207 2.65989C14.8558 2.71739 14.3118 2.90515 13.8317 3.20842C13.3515 3.51169 12.9483 3.92219 12.6536 4.40766L1.50095 22.5784C0.738358 23.8216 0.752757 25.4482 1.53875 26.7225L13.9724 46.8829C14.7716 48.1788 16.1779 48.966 17.6401 48.966C17.7805 48.966 17.9209 48.9588 18.0613 48.9438L38.7628 46.7791C39.3809 46.7163 39.9761 46.5111 40.5015 46.1795C41.027 45.848 41.4683 45.399 41.791 44.8681L52.7318 27.0417C53.5694 25.678 53.552 23.8912 52.6874 22.4908Z" fill="#262027"/>
<path d="M15.563 6.21008C15.5852 6.17254 15.6159 6.14079 15.6527 6.11743C15.6896 6.09407 15.7314 6.07976 15.7748 6.07568L34.7741 4.08911L24.9703 20.0633C24.8774 20.2158 24.7506 20.3448 24.5997 20.4402C24.4488 20.5357 24.2779 20.595 24.1003 20.6135L5.53174 22.555L15.563 6.21008Z" fill="#DBDBDB"/>
<path d="M17.7075 45.5281C17.3937 45.5635 17.0649 45.3775 16.8777 45.0746L5.14307 26.0464L24.4544 24.0269C24.5642 24.0155 24.665 23.9753 24.7724 23.9561L36.8424 43.5272L17.7075 45.5281Z" fill="#DBDBDB"/>
<path d="M49.8218 25.2399L39.7282 41.6857L27.6689 22.1338C27.7361 22.0408 27.8189 21.9634 27.8795 21.8644L38.0548 5.2854L49.7816 24.2991C49.97 24.6045 49.9856 24.9735 49.8218 25.2399Z" fill="#DBDBDB"/>
<path d="M19.4759 14.3333C19.5785 14.4359 19.7033 14.5163 19.8401 14.5847C19.9769 14.6423 20.1251 14.6651 20.2727 14.6651C20.5805 14.6651 20.8655 14.5505 21.0815 14.3333C21.1909 14.2265 21.2764 14.0977 21.3323 13.9553C21.3893 13.8179 21.4121 13.6691 21.4121 13.5203C21.4121 13.2227 21.2987 12.9252 21.0815 12.708C20.9188 12.5539 20.7155 12.4494 20.4955 12.4068C20.2755 12.3641 20.048 12.3852 19.8395 12.4674C19.7033 12.5225 19.5794 12.6043 19.4753 12.708C19.2587 12.9252 19.1333 13.2227 19.1333 13.5203C19.1333 13.6691 19.1675 13.8179 19.2245 13.9553C19.2821 14.1041 19.3619 14.2301 19.4759 14.3333Z" fill="#262027"/>
<path d="M33.6844 21.8187C33.58 21.7154 33.4562 21.6336 33.3202 21.5781C33.1824 21.5155 33.0329 21.4832 32.8816 21.4832C32.7303 21.4832 32.5807 21.5155 32.443 21.5781C32.3067 21.6332 32.1829 21.715 32.0788 21.8187C31.9691 21.9253 31.8836 22.0542 31.828 22.1967C31.773 22.3351 31.7459 22.4829 31.7482 22.6317C31.7482 22.7007 31.7482 22.7805 31.771 22.8489C31.7824 22.9287 31.8052 22.9977 31.828 23.0661C31.8622 23.1351 31.8964 23.2035 31.9306 23.2605C32.055 23.4503 32.2338 23.5982 32.4436 23.6847C32.5918 23.7417 32.7394 23.7765 32.8882 23.7765C33.0364 23.7765 33.184 23.7417 33.3208 23.6847C33.4576 23.6277 33.583 23.5473 33.685 23.4441C33.9016 23.2269 34.027 22.9287 34.027 22.6317C34.027 22.4829 33.9928 22.3341 33.9358 22.1967C33.8834 22.0524 33.7972 21.9228 33.6844 21.8187Z" fill="#262027"/>
<path d="M40.0547 22.9059C39.9497 22.8031 39.8258 22.7214 39.6899 22.6653C39.5514 22.6068 39.4026 22.5764 39.2523 22.5759C39.1019 22.5754 38.953 22.6048 38.8141 22.6624C38.6752 22.7199 38.5491 22.8045 38.4432 22.9112C38.3373 23.0179 38.2536 23.1446 38.1971 23.2839C38.1422 23.4223 38.1151 23.5701 38.1173 23.7189C38.1173 23.7879 38.1173 23.8683 38.1401 23.9367C38.1515 24.0165 38.1743 24.0855 38.1971 24.1539C38.2313 24.2229 38.2655 24.2907 38.3111 24.3483C38.3453 24.4173 38.3915 24.4743 38.4479 24.5313L38.6189 24.6687C38.6873 24.7143 38.7443 24.7491 38.8127 24.7719C38.8931 24.8061 38.9615 24.8289 39.0293 24.8403C39.1097 24.8523 39.1781 24.8631 39.2573 24.8631C39.4055 24.8631 39.5531 24.8289 39.6899 24.7719C39.8267 24.7143 39.9521 24.6345 40.0547 24.5313C40.1117 24.4743 40.1573 24.4173 40.2029 24.3483C40.2371 24.2907 40.2713 24.2223 40.3055 24.1539C40.3283 24.0849 40.3511 24.0165 40.3739 23.9367C40.3859 23.8677 40.3967 23.7873 40.3967 23.7189C40.3967 23.5701 40.3625 23.4213 40.3055 23.2839C40.2532 23.1398 40.1672 23.0102 40.0547 22.9059Z" fill="#262027"/>
<path d="M46.1269 23.5133C45.9668 23.3551 45.764 23.2471 45.5434 23.2023C45.3228 23.1576 45.094 23.1781 44.8849 23.2613C44.7461 23.3168 44.6216 23.403 44.5207 23.5133C44.4107 23.6149 44.3249 23.74 44.2699 23.8793C44.2114 24.0169 44.1804 24.1647 44.1787 24.3143C44.1787 24.6233 44.3047 24.9095 44.5207 25.1267C44.6233 25.2299 44.7481 25.3217 44.8849 25.3787C45.0217 25.4357 45.1699 25.4585 45.3175 25.4585C45.6253 25.4585 45.9217 25.3445 46.1263 25.1267C46.3435 24.9095 46.4569 24.6233 46.4569 24.3143C46.4569 24.1655 46.4341 24.0167 46.3771 23.8793C46.3188 23.7419 46.2337 23.6175 46.1269 23.5133Z" fill="#262027"/>
<path d="M94.626 52.4051L79.6688 37.2853C79.2711 36.8804 78.7849 36.5732 78.2485 36.3878C77.7121 36.2023 77.14 36.1438 76.5771 36.2167L55.4946 38.9005C54.0522 39.0841 52.8012 40.1166 52.3068 41.5314L44.4871 63.9087C43.9363 65.4849 44.3173 67.2477 45.4567 68.399L60.1283 83.2302C60.5627 83.6736 61.0942 84.0099 61.6809 84.2126C62.2675 84.4153 62.8932 84.479 63.5087 84.3984L84.1916 81.7663C85.7744 81.5641 87.1477 80.4295 87.6907 78.8755L95.5116 56.4952C96.012 55.06 95.6646 53.4551 94.626 52.4051Z" fill="#262027"/>
<path d="M77.0069 39.6234C77.05 39.6172 77.0939 39.6213 77.135 39.6355C77.1761 39.6497 77.2133 39.6736 77.2433 39.705L90.7077 53.3158L72.1746 55.675C71.9976 55.6983 71.8177 55.6802 71.649 55.622C71.4803 55.5638 71.3275 55.4671 71.2026 55.3396L58.043 42.0378L77.0069 39.6234Z" fill="#DBDBDB"/>
<path d="M47.8803 65.9787C47.6619 65.7579 47.5941 65.3829 47.7123 65.0457L55.0928 43.926L68.778 57.76C68.8566 57.8392 68.9478 57.8974 69.0306 57.97L61.4413 79.6873L47.8803 65.9787Z" fill="#DBDBDB"/>
<path opacity="0.1" d="M17.7075 45.5281C17.3937 45.5635 17.0649 45.3775 16.8777 45.0746L5.14307 26.0464L24.4544 24.0269C24.5642 24.0155 24.665 23.9753 24.7724 23.9561L36.8424 43.5272L17.7075 45.5281Z" fill="black"/>
<path opacity="0.1" d="M47.8803 65.9787C47.6619 65.7579 47.5941 65.3829 47.7123 65.0457L55.0928 43.926L68.778 57.76C68.8566 57.8392 68.9478 57.8974 69.0306 57.97L61.4413 79.6873L47.8803 65.9787Z" fill="black"/>
<path d="M84.4648 77.738C84.3466 78.0764 84.0706 78.32 83.7616 78.359L64.6807 80.7878L72.2586 59.1041C72.3744 59.0981 72.4896 59.0969 72.6054 59.0819L91.8399 56.6333L84.4648 77.738Z" fill="#DBDBDB"/>
<path d="M68.2667 46.8631C68.4833 47.0803 68.7683 47.2063 69.0755 47.2063C69.3719 47.2063 69.6683 47.0803 69.8735 46.8631C70.0901 46.6567 70.2149 46.3597 70.2149 46.0615C70.2149 45.7525 70.0895 45.4663 69.8735 45.2491C69.4517 44.8261 68.6885 44.8261 68.2667 45.2491C68.1604 45.3558 68.0764 45.4826 68.0197 45.6221C67.9629 45.7616 67.9345 45.9109 67.9361 46.0615C67.9361 46.3591 68.0501 46.6567 68.2667 46.8631Z" fill="#262027"/>
<path d="M80.6985 51.3037C80.9943 51.3037 81.2913 51.1777 81.4959 50.9605C81.7125 50.7541 81.8379 50.4571 81.8379 50.1589C81.8379 49.8499 81.7119 49.5637 81.4959 49.3465C81.0747 48.9229 80.3109 48.9229 79.8897 49.3465C79.7832 49.4511 79.698 49.5754 79.6389 49.7125C79.585 49.8551 79.5579 50.0064 79.5591 50.1589C79.5591 50.4565 79.6731 50.7541 79.8897 50.9605C80.1057 51.1783 80.3907 51.3037 80.6985 51.3037Z" fill="#262027"/>
<path d="M77.4966 68.3241C77.2884 68.5438 77.1703 68.8338 77.166 69.1365C77.166 69.4341 77.2914 69.7317 77.4966 69.9489C77.7132 70.1553 78.009 70.2807 78.3054 70.2807C78.4536 70.2807 78.6012 70.2579 78.738 70.2009C78.8862 70.1319 79.0116 70.0515 79.1142 69.9489C79.2168 69.8463 79.2966 69.7203 79.3536 69.5709C79.422 69.4341 79.4448 69.2847 79.4448 69.1359C79.4448 68.8383 79.3194 68.5407 79.1142 68.3235C78.6816 67.9005 77.9292 67.9005 77.4966 68.3241Z" fill="#262027"/>
<path d="M14.7583 30.9068C14.3365 30.4832 13.5733 30.4832 13.1515 30.9068C13.0451 31.0113 12.9601 31.1357 12.9013 31.2728C12.8459 31.415 12.8186 31.5666 12.8209 31.7192C12.8209 32.0168 12.9349 32.3144 13.1515 32.5208C13.2553 32.6293 13.38 32.7156 13.5181 32.7746C13.6562 32.8336 13.8048 32.864 13.9549 32.864C14.1051 32.864 14.2537 32.8336 14.3917 32.7746C14.5298 32.7156 14.6545 32.6293 14.7583 32.5208C14.9749 32.3144 15.0997 32.0168 15.0997 31.7192C15.0997 31.559 15.0655 31.4216 15.0091 31.2728C14.9539 31.1336 14.8682 31.0085 14.7583 30.9068Z" fill="#262027"/>
<path d="M18.0747 38.8963C17.8664 39.1159 17.7484 39.406 17.7441 39.7087C17.7441 40.0063 17.8695 40.3039 18.0747 40.5103C18.2913 40.7275 18.5871 40.8535 18.8835 40.8535C19.1913 40.8535 19.4763 40.7275 19.6923 40.5103C19.8969 40.3039 20.0229 40.0063 20.0229 39.7087C20.0229 39.4111 19.8969 39.1135 19.6923 38.8963C19.2711 38.4727 18.5073 38.4727 18.0747 38.8963Z" fill="#262027"/>
<path d="M21.5837 29.2359C21.4454 29.2938 21.3181 29.3752 21.2075 29.4765C20.9992 29.6961 20.8812 29.9861 20.877 30.2889C20.877 30.4376 20.9112 30.5864 20.9682 30.7238C21.0252 30.8726 21.1044 30.9986 21.2075 31.1018C21.3209 31.2044 21.4469 31.2854 21.5837 31.3424C21.7199 31.4114 21.8687 31.4342 22.0163 31.4342C22.3121 31.4342 22.6091 31.3082 22.8251 31.1024C22.9277 30.9998 23.0075 30.8732 23.0645 30.7244C23.1215 30.587 23.1557 30.4382 23.1557 30.2895C23.1557 29.9919 23.0297 29.6943 22.8251 29.4771C22.6627 29.3228 22.4595 29.2181 22.2396 29.1754C22.0197 29.1327 21.7921 29.1536 21.5837 29.2359Z" fill="#262027"/>
<path d="M27.7484 37.4769C27.3266 37.0419 26.5634 37.0419 26.1422 37.4769C26.036 37.5814 25.9519 37.7062 25.8951 37.844C25.8383 37.9817 25.8099 38.1295 25.8116 38.2785C25.8116 38.5875 25.925 38.8737 26.1422 39.0909C26.3468 39.3081 26.6438 39.4227 26.951 39.4227C27.2468 39.4227 27.5438 39.3081 27.7484 39.0909C27.965 38.8737 28.0904 38.5875 28.0904 38.2785C28.0904 37.9803 27.965 37.6833 27.7484 37.4769Z" fill="#262027"/>
<path d="M56.0064 53.25C55.938 53.2728 55.8696 53.2956 55.7892 53.319C55.7215 53.3532 55.6639 53.388 55.5955 53.4216C55.5358 53.4681 55.4787 53.5178 55.4245 53.5704C55.3181 53.6753 55.2331 53.7998 55.1743 53.937C55.1191 54.0753 55.0918 54.2231 55.0939 54.372C55.0939 54.5322 55.1167 54.6696 55.1743 54.8184C55.2313 54.9552 55.3225 55.0818 55.4245 55.1844C55.4815 55.2414 55.5385 55.287 55.5955 55.3332C55.6639 55.368 55.7215 55.4022 55.7892 55.4358C55.8696 55.4586 55.938 55.4814 56.0064 55.5048C56.0862 55.5168 56.1546 55.5168 56.2338 55.5168C56.5302 55.5168 56.8266 55.4022 57.0318 55.185C57.1458 55.0824 57.2256 54.9558 57.282 54.819C57.339 54.6696 57.3732 54.5328 57.3732 54.3726C57.3732 54.075 57.2478 53.7774 57.0318 53.571C56.8995 53.4388 56.7371 53.3406 56.5585 53.2847C56.38 53.2288 56.1906 53.2169 56.0064 53.25Z" fill="#262027"/>
<path d="M52.691 62.1893C52.552 62.2443 52.4275 62.3303 52.3268 62.4407C52.2205 62.5451 52.1365 62.67 52.0797 62.8077C52.0229 62.9455 51.9945 63.0933 51.9962 63.2422C51.9962 63.5512 52.1096 63.8374 52.3268 64.0546C52.4294 64.1572 52.5542 64.2382 52.691 64.306C52.8392 64.3636 52.9868 64.3864 53.1355 64.3864C53.4313 64.3864 53.7283 64.2718 53.9329 64.0546C54.1495 63.8374 54.2749 63.5512 54.2749 63.2422C54.2749 62.9446 54.1489 62.647 53.9329 62.4407C53.7727 62.2827 53.5699 62.1749 53.3493 62.1302C53.1288 62.0856 52.9 62.1061 52.691 62.1893Z" fill="#262027"/>
<path d="M62.3987 60.9305C62.6945 60.9305 62.9915 60.8045 63.1961 60.5987C63.3065 60.4927 63.3921 60.3637 63.4469 60.2207C63.5038 60.0833 63.538 59.9345 63.538 59.7857C63.538 59.6369 63.5038 59.4881 63.4469 59.3507C63.3891 59.2093 63.3039 59.0809 63.1961 58.9727C62.7749 58.5491 62.0117 58.5491 61.5899 58.9727C61.377 59.1894 61.2582 59.4814 61.2593 59.7851C61.2593 60.0827 61.3733 60.3803 61.5899 60.5975C61.8059 60.8045 62.0909 60.9305 62.3987 60.9305Z" fill="#262027"/>
<path d="M59.7326 67.6035C59.5949 67.5409 59.4453 67.5085 59.294 67.5085C59.1427 67.5085 58.9932 67.5409 58.8554 67.6035C58.7191 67.6588 58.5951 67.7405 58.4906 67.8441C58.4382 67.8955 58.3923 67.9532 58.3538 68.0157C58.3117 68.082 58.2738 68.151 58.2404 68.2221C58.2176 68.2911 58.1948 68.3589 58.1834 68.4279C58.1606 68.5083 58.1606 68.5773 58.1606 68.6571C58.1606 68.9547 58.2746 69.2523 58.4912 69.4695C58.7078 69.6759 58.9928 69.8013 59.3 69.8013C59.4488 69.8013 59.5964 69.7665 59.7332 69.7095C59.8694 69.6525 59.9954 69.5721 60.0974 69.4689C60.314 69.2517 60.4388 68.9535 60.4388 68.6565C60.4388 68.3589 60.3134 68.0613 60.0974 67.8441C59.993 67.7405 59.869 67.6588 59.7326 67.6035Z" fill="#262027"/>
</svg>
