<svg width="58" height="63" viewBox="0 0 58 63" fill="none" xmlns="http://www.w3.org/2000/svg">
<path d="M28.8179 16.75C28.0265 16.7468 27.245 16.9256 26.5337 17.2726C25.8225 17.6196 25.2006 18.1255 24.716 18.7512C24.2318 18.1255 23.61 17.6196 22.8989 17.2725C22.1878 16.9255 21.4065 16.7468 20.6152 16.75C17.7575 16.75 15.475 19.0211 15.4187 21.92C15.3286 26.6434 23.3969 32.9668 24.3169 33.6723C24.4546 33.7781 24.6233 33.8357 24.797 33.836C24.9706 33.8364 25.1396 33.7796 25.2777 33.6743C25.5272 33.4847 31.4031 28.9738 33.6143 23.9274C33.8789 23.323 34.0134 22.6535 34.0134 21.9356C34.0139 19.0758 31.6824 16.75 28.8179 16.75Z" fill="#FF4040"/>
<path d="M48.4897 51.8526V2.18736C48.4891 1.72151 48.3036 1.27495 47.9738 0.945891C47.6441 0.616828 47.1972 0.432203 46.7313 0.432618H2.70126C2.23541 0.432203 1.78847 0.616828 1.45872 0.945891C1.12897 1.27495 0.943424 1.72151 0.942871 2.18736V51.8526C0.943424 52.3184 1.12897 52.765 1.45872 53.0941C1.78847 53.4231 2.23541 53.6077 2.70126 53.6073H46.7313C47.1972 53.6077 47.6441 53.4231 47.9738 53.0941C48.3036 52.765 48.4891 52.3184 48.4897 51.8526ZM44.9734 50.0978H4.46017V3.94158H44.9734V50.0978Z" fill="#000001"/>
<path d="M7.83726 42.4876H41.5952C41.7336 42.4877 41.8707 42.4606 41.9986 42.4077C42.1265 42.3549 42.2428 42.2774 42.3408 42.1796C42.4388 42.0818 42.5165 41.9657 42.5696 41.8379C42.6227 41.7101 42.6501 41.573 42.6502 41.4346V7.74753C42.6501 7.60912 42.6227 7.47209 42.5696 7.34426C42.5165 7.21644 42.4388 7.10032 42.3408 7.00255C42.2428 6.90477 42.1265 6.82725 41.9986 6.77441C41.8707 6.72157 41.7336 6.69444 41.5952 6.69458H7.83726C7.69885 6.69444 7.56176 6.72157 7.43384 6.77441C7.30591 6.82725 7.18964 6.90477 7.09167 7.00255C6.9937 7.10032 6.91595 7.21644 6.86285 7.34426C6.80976 7.47209 6.78236 7.60912 6.78223 7.74753V41.4351C6.78278 41.7145 6.89419 41.9823 7.09201 42.1796C7.28982 42.3769 7.55785 42.4877 7.83726 42.4876ZM8.89229 8.79996H40.5407V40.3822H8.89229V8.79996Z" fill="#000001"/>
<path d="M53.195 56.8489V5.69675C53.1948 5.55834 53.1674 5.42131 53.1143 5.29348C53.0612 5.16566 52.9835 5.04954 52.8855 4.95177C52.7876 4.85399 52.6713 4.77647 52.5434 4.72363C52.4154 4.67079 52.2783 4.64366 52.1399 4.6438C52.0015 4.64366 51.8644 4.67079 51.7365 4.72363C51.6086 4.77647 51.4923 4.85399 51.3943 4.95177C51.2964 5.04954 51.2186 5.16566 51.1655 5.29348C51.1124 5.42131 51.085 5.55834 51.0849 5.69675V55.796H6.21812C6.07971 55.7958 5.94262 55.823 5.81469 55.8758C5.68677 55.9286 5.5705 56.0062 5.47253 56.1039C5.37456 56.2017 5.29681 56.3178 5.24372 56.4457C5.19062 56.5735 5.16322 56.7105 5.16309 56.8489C5.16309 57.4304 5.63564 57.9019 6.21812 57.9019H52.1399C52.2783 57.902 52.4154 57.8749 52.5434 57.822C52.6713 57.7692 52.7876 57.6917 52.8855 57.5939C52.9835 57.4961 53.0612 57.38 53.1143 57.2522C53.1674 57.1244 53.1948 56.9873 53.195 56.8489Z" fill="#000001"/>
<path d="M56.6778 9.17456C56.5394 9.17442 56.4023 9.20155 56.2744 9.25439C56.1465 9.30723 56.0302 9.38476 55.9322 9.48253C55.8343 9.58031 55.7565 9.69642 55.7034 9.82424C55.6503 9.95207 55.6229 10.0891 55.6228 10.2275V60.3267H10.6893C10.5509 60.3266 10.4138 60.3537 10.2859 60.4066C10.158 60.4594 10.0417 60.5369 9.94372 60.6347C9.84575 60.7325 9.768 60.8486 9.71491 60.9764C9.66181 61.1042 9.63441 61.2413 9.63428 61.3797C9.63428 61.9611 10.1068 62.4326 10.6893 62.4326H56.6778C56.8162 62.4328 56.9533 62.4056 57.0812 62.3528C57.2092 62.3 57.3254 62.2224 57.4234 62.1247C57.5214 62.0269 57.5991 61.9108 57.6522 61.7829C57.7053 61.6551 57.7327 61.5181 57.7328 61.3797V10.2275C57.7327 10.0891 57.7053 9.95207 57.6522 9.82424C57.5991 9.69642 57.5214 9.58031 57.4234 9.48253C57.3254 9.38476 57.2092 9.30723 57.0812 9.25439C56.9533 9.20155 56.8162 9.17442 56.6778 9.17456Z" fill="#000001"/>
</svg>
