<svg width="94" height="73" viewBox="0 0 94 73" fill="none" xmlns="http://www.w3.org/2000/svg">
<path d="M23.3498 4.53101H10.7302C10.475 4.53026 10.2221 4.57978 9.9861 4.67674C9.75005 4.77369 9.53542 4.9162 9.35444 5.09611C9.17347 5.27602 9.0297 5.48981 8.93135 5.72528C8.83301 5.96075 8.782 6.21329 8.78125 6.46847V13.2168C8.782 13.472 8.83301 13.7246 8.93135 13.96C9.0297 14.1955 9.17347 14.4093 9.35444 14.5892C9.53542 14.7691 9.75005 14.9116 9.9861 15.0086C10.2221 15.1055 10.475 15.155 10.7302 15.1543H23.3498C23.605 15.155 23.8578 15.1055 24.0939 15.0086C24.3299 14.9116 24.5445 14.7691 24.7255 14.5892C24.9065 14.4093 25.0503 14.1955 25.1486 13.96C25.247 13.7246 25.298 13.472 25.2987 13.2168V6.46847C25.298 6.21329 25.247 5.96075 25.1486 5.72528C25.0503 5.48981 24.9065 5.27602 24.7255 5.09611C24.5445 4.9162 24.3299 4.77369 24.0939 4.67674C23.8578 4.57978 23.605 4.53026 23.3498 4.53101Z" fill="#A9A9A9"/>
<path d="M90.8065 72.4326H3.86975C3.50845 72.4337 3.15048 72.3636 2.81628 72.2263C2.48208 72.089 2.1782 71.8872 1.922 71.6325C1.6658 71.3777 1.4623 71.075 1.32312 70.7415C1.18394 70.4081 1.11181 70.0506 1.11084 69.6893V13.4253C1.11274 12.702 1.39947 12.0086 1.90894 11.4951C2.41842 10.9816 3.10964 10.6895 3.83293 10.682L29.2432 10.3392L30.9777 2.58117C31.1156 1.9702 31.4575 1.42443 31.9471 1.03386C32.4368 0.643286 33.0449 0.43122 33.6712 0.432624H61.653C62.271 0.431557 62.8714 0.638099 63.3579 1.01911C63.8444 1.40013 64.1888 1.93352 64.3358 2.53372L66.2201 10.3097H90.8057C91.167 10.3086 91.5249 10.3787 91.8591 10.516C92.1933 10.6533 92.4972 10.8551 92.7534 11.1099C93.0096 11.3646 93.2131 11.6674 93.3523 12.0008C93.4915 12.3342 93.5636 12.6918 93.5646 13.0531V69.6884C93.5638 70.0498 93.4919 70.4074 93.3528 70.7409C93.2138 71.0744 93.0104 71.3773 92.7542 71.6321C92.4981 71.887 92.1942 72.0888 91.86 72.2262C91.5258 72.3635 91.1678 72.4337 90.8065 72.4326ZM6.62948 66.9451H88.0468V15.7973H64.0462C63.4283 15.7983 62.8279 15.5918 62.3414 15.2108C61.8549 14.8298 61.5104 14.2964 61.3634 13.6962L59.4791 5.92017H35.8852L34.1572 13.6487C34.0204 14.2532 33.684 14.794 33.2021 15.1838C32.7203 15.5736 32.1211 15.7897 31.5014 15.7973L6.62948 16.1319V66.9451Z" fill="#000001"/>
<path d="M79.738 25.4723C79.738 27.3377 78.217 28.8505 76.3409 28.8505C74.4648 28.8505 72.9438 27.3377 72.9438 25.4723C72.9438 23.6068 74.4648 22.094 76.3409 22.094C78.217 22.094 79.738 23.6068 79.738 25.4723Z" fill="#000001"/>
<path d="M47.3379 62.7936C35.3638 62.7936 25.6226 53.1079 25.6226 41.2026C25.6226 29.2972 35.3646 19.6116 47.3379 19.6116C59.3112 19.6116 69.0525 29.2972 69.0525 41.2026C69.0525 53.1079 59.312 62.7936 47.3379 62.7936ZM47.3379 24.5501C38.1031 24.5501 30.5889 32.0209 30.5889 41.2026C30.5889 50.3842 38.1023 57.855 47.3379 57.855C56.5736 57.855 64.0853 50.3842 64.0853 41.2026C64.0853 32.0209 56.5736 24.5501 47.3379 24.5501Z" fill="#000001"/>
<path d="M59.9562 41.2027C59.9562 48.1319 54.3067 53.7487 47.3382 53.7487C40.3698 53.7487 34.7202 48.1319 34.7202 41.2027C34.7202 34.2736 40.3698 28.6567 47.3382 28.6567C54.3067 28.6567 59.9562 34.2736 59.9562 41.2027Z" fill="#A9A9A9"/>
</svg>
